{
  "name": "dark-matter-compendium",
  "title": "Dark Matter Compendiums",
  "description": "A Dark Matter W.I.P.",
  "author": "CSMcFarland#6471",
  "version": "11.0.2",
  "minimumCoreVersion": "0.7.5",
  "compatibleCoreVersion": "0.7.10",
  "systems": [
    "dnd5e"
  ],
  "styles": [
    "./styles/D-M-Style.css"
  ],
  "packs": [
    {
      "name": "monsters",
      "label": "Dark Matter Monsters",
      "path": "./packs/monsters.db",
      "entity": "Actor",
      "module": "dark-matter-compendium"
    },
    {
      "name": "prebuilts",
      "label": "Dark Matter Prebuilt PCs",
      "path": "./packs/prebuilts.db",
      "entity": "Actor",
      "modele": "dark-matter-compendium"
    },
    {
      "name": "armor",
      "label": "Dark Matter Armor",
      "path": "./packs/armor.db",
      "entity": "Item",
      "module": "dark-matter-compendium"
    },
    {
      "name": "backgrounds",
      "label": "Dark Matter Backgrounds",
      "path": "./packs/backgrounds.db",
      "entity": "Item",
      "module": "dark-matter-compendium"
    },
    {
      "name": "classes",
      "label": "Dark Matter Classes",
      "path": "./packs/classes.db",
      "entity": "Item",
      "module": "dark-matter-compendium"
    },
    {
      "name": "equipment",
      "label": "Dark Matter Equipment",
      "path": "./packs/equipment.db",
      "entity": "Item",
      "module": "dark-matter-compendium"
    },
    {
      "name": "feats",
      "label": "Dark Matter Features",
      "path": "./packs/feats.db",
      "entity": "Item",
      "module": "dark-matter-compendium"
    },
    {
      "name": "races",
      "label": "Dark Matter Races",
      "path": "./packs/races.db",
      "entity": "Item",
      "module": "dark-matter-compendium"
    },
    {
      "name": "spells",
      "label": "Dark Matter Spells",
      "path": "./packs/spells.db",
      "entity": "Item",
      "module": "dark-matter-compendium"
    },
    {
      "name": "monster-feats",
      "label": "Dark Matter Monster Features",
      "path": "./packs/monster-feats.db",
      "entity": "Item",
      "module": "dark-matter-compendium"
    },
    {
      "name": "weapons",
      "label": "Dark Matter Weapons",
      "path": "./packs/weapons.db",
      "entity": "Item",
      "module": "dark-matter-compendium"
    },
    {
      "name": "journals",
      "label": "Dark Matter Rules",
      "path": "./packs/rules.db",
      "entity": "JournalEntry",
      "module": "dark-matter-compendium"
    },
    {
      "name": "macros",
      "label": "Dark Matter Macros",
      "path": "./packs/macros.db",
      "entity": "Macro",
      "module": "dark-matter-compendium"
    },
    {
      "name": "music",
      "label": "Dark Matter Music",
      "path": "./packs/music.db",
      "entity": "Playlist",
      "module": "dark-matter-compendium"
    },
    {
      "name": "rolltables",
      "label": "Dark Matter Roll Tables",
      "path": "./packs/rolltables.db",
      "entity": "RollTable",
      "module": "dark-matter-compendium"
    },
    {
      "name": "scenes",
      "label": "Dark Matter Scenes",
      "path": "./packs/scenes.db",
      "entity": "Scene",
      "module": "dark-matter-compendium"
    },
    {
      "name": "DM",
      "label": "Dark Matter Chapters",
      "path": "./packs/dark-matter.db",
      "entity": "JournalEntry",
      "module": "dark-matter-compendium"
    }
  ],
  "url": "https://gitlab.com/csmcfarland/dark-matter-compendium",
  "manifest": "https://gitlab.com/csmcfarland/dark-matter-compendium/raw/master/module.json",
  "download": "https://gitlab.com/csmcfarland/dark-matter-compendium/-/archive/master/dark-matter-compendium-master.zip",
  "readme": "README.md",
  "dependencies": [
    {
      "name": "game-icons-net",
      "manifest": "https://raw.githubusercontent.com/datdamnzotz/icons/master/module.json"
    },
    {
      "name": "dme",
      "manifest": "https://gitlab.com/csmcfarland/dme/raw/master/module.json"
    }
  ]
}
